// Jest Snapshot v1, https://goo.gl/fbAQLP

exports[`InputComponent should create 1`] = `
<div
  id="root0"
  ng-version="7.2.14"
>
  <section>
    <form
      class="ng-untouched ng-pristine ng-invalid"
      ng-reflect-form="[object Object]"
      novalidate=""
    >
      <div
        class="form-group"
      >
        <label
          for="customerName"
        >
           Name 
        </label>
        <input
          class="form-control ng-untouched ng-pristine ng-invalid"
          formcontrolname="name"
          id="customerName"
          ng-reflect-name="name"
          type="text"
        />
      </div>
      <div
        class="form-group"
      >
        <label
          for="customerId"
        >
           Kundennummer 
        </label>
        <input
          class="form-control ng-untouched ng-pristine ng-invalid"
          formcontrolname="number"
          id="customerId"
          ng-reflect-name="number"
          type="number"
        />
        <!--bindings={
  "ng-reflect-ng-if": "false"
}-->
      </div>
      <div
        class="form-group"
      >
        <button
          class="btn btn-primary disabled"
          disabled=""
          type="submit"
        >
           Aktuelle Angebote 
        </button>
      </div>
    </form>
  </section>
</div>
`;
