{
  "request": {
    "method": "OPTIONS",
    "url": "/api/order"
  },
  "response": {
    "status": 200,
    "headers": {
      "Access-Control-Allow-Origin": "http://localhost:4200",
      "Access-Control-Allow-Methods": "POST",
      "Access-Control-Allow-Headers": "content-type"
    }
  }
}
